22

1
5
4
2
-1

9
-1
8
5
6
7
-2

7
3
5
-3
5
6
-1

2
-1
3
4
5
8
-2
-1
1
4
7
3
-4
-3
1

1
4
6
-1
-1
-1

6
2
6
7
2
-1
-2

6
-1
7
7
7
-1
-2

3
6
9
2
1
5
6
-2
-3
-1
1
1
1
1
-1

5
3
-1
-1

7
3
1
6
-1
-1
-2

6
8
4
-2
1
-2
1
-2

1
6
3
-1

3
-1
5
10
10
10
-3
1
3
1
-5

3
6
-2

2
5
-1
-1
6
31
4
3
1
2
3
4
-1
-1
-1
-1

5
9
2
1
-4
-2
2
2
2
-1

7
-1
5
4
3
2
1
-1
-4
-2
-2
-1

100
1
-1
10
10
10
-2
2
2
-1
-2

2
7
8
9
-2
-2
-2
1
1
2

10
9
8
7
-4
-2
-2

4
7
8
1
2
3
1
2
-5
-3
-1
-1

3
5
8
9
-1
-1
